Advanced R Tutorial
…
You know how to do some manupulation to your data know. Some basic maths information may help you learn more about your data. summarise() function summarizes some maths such as sum, average, standard deviation, maximum, minimum, and counts of the columns you defined. To apply summarise, you can add your new column name, and let it equals to the math function with the variable. More than one summary functions are possible.

N2O_ghg %>% 
  summarise(n=n(), average = mean(Value), std = sd(Value), maximum = max(Value))

##     n  average      std  maximum
## 1 544 30398.24 42287.36 202323.2

That’s a big standard deviation. It kinda makes sense since it was calculated through all the countries. A lot of times, we want to summarize the information not through all the data but by a group, say Country in this case. group_by function will divide the data with the columns/variables that you specified, and the latter functions can be applied to each divided data section.

N2O_ghg %>% 
  group_by(Country) %>% 
  summarise(average = mean(Value), std = sd(Value), maximum = max(Value)) 

## # A tibble: 32 x 4
##    Country        average   std maximum
##    <chr>            <dbl> <dbl>   <dbl>
##  1 Austria         13390.  900.  14894.
##  2 Belgium         16981.  938.  17868.
##  3 Bulgaria        11711. 4051.  24298.
##  4 Cyprus           1037.  241.   1165.
##  5 Czech Republic  18907. 4110.  30931.
##  6 Denmark         23760. 3254.  29140.
##  7 Estonia          3165. 1302.   6231.
##  8 Finland         13321. 1039.  16018.
##  9 France         187117. 8057. 202323.
## 10 Germany        135265. 6463. 156105.
## # … with 22 more rows

We just got some summaries of each European countries “N2O” gas emission throughout years. arrange function can be used to order a dataset based on values in one or multiple columns you defined. For example, I may want to order the dataset above based on firstly the “average”, and then “std” columns:

N2O_ghg %>% 
  group_by(Country) %>% 
  summarise(average = mean(Value), std = sd(Value), maximum = max(Value)) %>% 
  arrange(desc(average), std)

## # A tibble: 32 x 4
##    Country        average   std maximum
##    <chr>            <dbl> <dbl>   <dbl>
##  1 France         187117. 8057. 202323.
##  2 Germany        135265. 6463. 156105.
##  3 United Kingdom  94891. 6837. 104129.
##  4 Italy           74424. 2530.  78243.
##  5 Spain           72686. 5701.  81671.
##  6 Poland          72536. 7934.  97904.
##  7 Romania         45278. 9637.  73284.
##  8 Netherlands     36396. 4219.  41262.
##  9 Greece          28968. 1739.  32453.
## 10 Ireland         24583. 1151.  26791.
## # … with 22 more rows
…
